date,meantempm,meandewptm,meanpressurem,maxhumidity,minhumidity,maxtempm,mintempm,maxdewptm,mindewptm,maxpressurem,minpressurem,precipm
2015-01-01,3,2,1024.5,100,64,4,2,4,-2,1028,1021,10.41
2015-01-02,4,4,1018,100,100,6,3,6,3,1022,1014,3.56
2015-01-03,8,4,1017,100,51,16,1,7,1,1021,1013,16
2015-01-04,4,-1,1030,100,42,11,-2,3,-6,1039,1021,0
2015-01-05,3,-4,1035.5,85,36,11,-4,-2,-7,1040,1031,0
2015-01-06,10,0,1028.5,85,26,20,-1,3,-2,1031,1026,0
2015-01-07,5,-3,1035,86,35,11,-1,3,-13,1043,1027,0
2015-01-08,-2,-11,1034.5,61,39,3,-6,-5,-14,1042,1027,0
2015-01-09,3,-3,1030.5,92,54,4,1,1,-7,1035,1026,0
2015-01-10,2,-1,1030.5,100,48,3,0,2,-7,1035,1026,9.4
2015-01-11,6,4,1022.5,100,80,9,2,7,2,1026,1019,5.33
2015-01-12,7,6,1026,100,76,8,6,7,2,1031,1021,0
2015-01-13,4,1,1030.5,92,70,6,2,2,0,1033,1028,0
2015-01-14,4,3,1027,100,79,5,3,4,1,1029,1025,0
2015-01-15,8,2,1027,92,47,14,2,3,1,1029,1025,0
2015-01-16,7,2,1025.5,100,39,17,-3,5,-2,1029,1022,0
2015-01-17,11,4,1020.5,92,36,22,1,8,1,1025,1016,0
2015-01-18,11,-1,1025.5,85,22,21,0,2,-3,1028,1023,0
2015-01-19,11,4,1017.5,92,40,22,-2,9,-3,1022,1013,0
2015-01-20,14,7,1014,100,30,27,1,10,1,1017,1011,0
2015-01-21,11,11,1018,100,74,13,9,13,6,1020,1016,10.41
2015-01-22,8,8,1019.5,100,92,12,4,11,3,1024,1015,61.98
2015-01-23,6,4,1024.5,100,66,10,1,7,1,1027,1022,10.41
2015-01-24,7,1,1022,100,30,17,-3,4,-3,1025,1019,0
2015-01-25,11,2,1019.5,92,24,22,0,5,-1,1023,1016,0
2015-01-26,12,3,1023,89,23,23,1,7,0,1025,1021,0
2015-01-27,14,4,1020.5,85,23,27,2,8,2,1022,1019,0
2015-01-28,14,6,1020,100,27,27,2,9,3,1022,1018,0
2015-01-29,16,10,1024.5,100,43,24,7,15,1,1029,1020,0
2015-01-30,11,3,1028,71,46,14,7,4,1,1031,1025,0
2015-01-31,12,11,1018,100,66,17,6,17,4,1024,1012,6.6
2015-02-01,15,12,1018,100,53,23,7,16,-1,1025,1011,0
2015-02-02,4,-4,1027.5,62,38,8,1,-1,-7,1030,1025,0
2015-02-03,5,3,1025.5,100,62,6,3,6,-2,1028,1023,5.84
2015-02-04,10,7,1019.5,100,77,14,6,10,5,1023,1016,1.27
2015-02-05,8,2,1027,89,65,11,4,9,-1,1031,1023,0
2015-02-06,9,3,1027.5,89,57,14,3,6,1,1031,1024,0
2015-02-07,12,8,1019,100,53,20,3,12,3,1023,1015,0
2015-02-08,17,13,1012.5,100,57,24,10,15,10,1016,1009,0
2015-02-09,17,7,1018,100,26,27,7,10,4,1020,1016,0
2015-02-10,15,7,1015.5,92,32,27,3,10,3,1018,1013,0
2015-02-11,14,9,1018.5,100,31,24,3,12,3,1023,1014,0
2015-02-12,10,2,1026.5,85,39,16,4,6,0,1030,1023,0
2015-02-13,11,4,1026,89,43,19,2,7,-1,1029,1023,0
2015-02-14,15,8,1023,96,36,25,4,12,4,1025,1021,0
2015-02-15,15,14,1016.5,96,81,19,10,17,9,1021,1012,0
2015-02-16,11,4,1017,100,70,19,3,17,-2,1024,1010,1.27
2015-02-17,6,-3,1024,85,38,12,-1,0,-5,1027,1021,0
2015-02-18,7,-1,1026.5,100,27,18,-4,1,-4,1029,1024,0
2015-02-19,10,4,1024,92,40,21,-2,9,-2,1029,1019,0
2015-02-20,17,14,1012.5,89,57,23,11,16,10,1017,1008,0
2015-02-21,19,14,1012.5,87,54,26,13,17,7,1016,1009,0
2015-02-22,8,7,1022,93,72,13,3,11,1,1030,1014,0.25
2015-02-23,1,-1,1031,100,82,3,-1,1,-3,1033,1029,0
2015-02-24,1,-1,1023,100,75,3,-1,1,-3,1029,1017,0
2015-02-25,9,1,1013,92,30,17,1,3,-2,1017,1009,0.25
2015-02-26,4,-1,1021,100,52,11,-3,3,-6,1029,1013,0
2015-02-27,1,-4,1028.5,82,52,3,-1,-1,-6,1031,1026,0
2015-02-28,1,0,1026,100,78,3,-1,3,-3,1028,1024,2.79
2015-03-01,4,3,1025.5,100,96,6,2,6,2,1028,1023,2.79
2015-03-02,6,4,1024.5,100,89,7,3,6,3,1028,1021,1.02
2015-03-03,10,10,1015.5,100,93,15,5,15,5,1021,1010,0.51
2015-03-04,12,12,1017,100,100,21,2,21,0,1026,1008,0.76
2015-03-05,2,-4,1030,100,36,8,-3,2,-8,1037,1023,2.29
2015-03-06,3,-4,1035,96,32,12,-6,-1,-8,1038,1032,0
2015-03-07,8,0,1028.5,82,28,16,1,2,-4,1032,1025,0
2015-03-08,11,9,1021,100,50,12,9,11,3,1025,1017,13.21
2015-03-09,11,10,1014.5,100,93,12,9,12,9,1018,1011,40.13
2015-03-10,13,11,1017.5,100,65,18,8,11,8,1021,1014,0
2015-03-11,14,10,1022,93,77,15,12,11,9,1024,1020,0
2015-03-12,16,11,1018.5,93,57,21,11,13,9,1022,1015,0.51
2015-03-13,17,11,1015,100,38,24,10,13,8,1017,1013,0
2015-03-14,17,10,1019.5,96,36,25,9,12,7,1023,1016,0
2015-03-15,13,11,1024.5,100,63,20,7,12,7,1026,1023,0
2015-03-16,16,13,1023,100,57,24,8,17,8,1025,1021,0
2015-03-17,21,17,1019,100,69,24,17,18,17,1022,1016,0
2015-03-18,21,17,1014.5,100,58,26,16,18,14,1017,1012,5.33
2015-03-19,21,18,1013.5,100,67,27,14,19,14,1015,1012,0
2015-03-20,19,17,1017.5,100,84,23,15,19,14,1020,1015,24.89
2015-03-21,15,14,1018.5,100,90,16,13,16,13,1021,1016,9.65
2015-03-22,18,14,1016.5,100,53,25,11,15,11,1019,1014,0
2015-03-23,17,13,1017.5,100,52,26,8,16,8,1020,1015,0
2015-03-24,19,16,1014.5,100,58,27,11,18,11,1017,1012,0
2015-03-25,22,16,1012.5,93,58,27,16,18,15,1015,1010,0
2015-03-26,14,9,1016.5,93,39,21,8,19,2,1022,1011,1.52
2015-03-27,18,3,1021,86,19,27,9,7,1,1023,1019,0
2015-03-28,16,7,1018.5,100,26,27,4,9,4,1021,1016,0
2015-03-29,20,13,1017.5,100,42,28,12,16,9,1020,1015,0
2015-03-30,22,17,1019.5,100,58,27,16,18,16,1022,1017,0
2015-03-31,23,17,1016,100,58,26,19,19,16,1019,1013,0
2015-04-01,23,18,1012.5,93,58,27,19,19,17,1015,1010,0
2015-04-02,24,19,1013,90,63,28,19,21,18,1015,1011,0
2015-04-03,24,17,1017,93,49,29,19,21,9,1022,1012,0
2015-04-04,17,7,1024,65,44,20,13,10,3,1027,1021,0
2015-04-05,17,15,1016.5,100,65,19,14,18,9,1021,1012,1.02
2015-04-06,23,18,1013.5,100,55,29,17,20,18,1016,1011,0
2015-04-07,24,19,1014,100,55,30,18,19,17,1016,1012,0
2015-04-08,23,19,1012.5,97,71,26,20,21,18,1015,1010,0
2015-04-09,24,20,1010,97,61,30,18,22,18,1013,1007,0
2015-04-10,17,13,1018,100,53,22,13,20,9,1022,1014,2.03
2015-04-11,18,17,1016.5,100,84,21,15,19,13,1019,1014,0.25
2015-04-12,23,19,1011.5,100,67,28,18,21,18,1015,1008,0
2015-04-13,23,18,1010.5,100,48,29,17,21,16,1014,1007,1.02
2015-04-14,19,13,1016.5,87,49,25,13,17,10,1019,1014,0
2015-04-15,18,14,1014.5,100,50,27,9,18,10,1017,1012,0
2015-04-16,22,19,1012,100,71,26,17,21,18,1015,1009,5.59
2015-04-17,21,19,1012,100,73,23,18,21,17,1014,1010,10.16
2015-04-18,19,18,1010,100,69,24,13,20,13,1013,1007,9.65
2015-04-19,22,15,1008.5,100,25,32,13,21,6,1011,1006,0
2015-04-20,17,7,1014.5,86,37,22,12,12,4,1017,1012,0
2015-04-21,17,13,1014,100,47,26,8,17,8,1016,1012,0
2015-04-22,23,19,1011,100,67,26,19,21,18,1013,1009,0
2015-04-23,24,21,1011,100,69,28,19,23,19,1013,1009,0
2015-04-24,24,22,1008.5,100,74,29,20,23,21,1013,1004,17.53
2015-04-25,26,18,1007,100,23,33,19,23,9,1010,1004,1.52
2015-04-26,25,21,1004,100,61,29,21,23,18,1008,1000,0
2015-04-27,22,17,1004,100,43,29,16,22,11,1009,999,10.92
2015-04-28,14,12,1015,84,67,18,11,15,8,1020,1010,0
2015-04-29,17,8,1017,96,33,24,9,11,5,1020,1014,0
2015-04-30,17,9,1015,100,35,27,7,12,7,1017,1013,0
2015-05-01,19,12,1017,100,36,28,9,14,9,1019,1015,0
2015-05-02,19,12,1016.5,100,39,27,10,14,10,1019,1014,0
2015-05-03,19,14,1015,100,40,28,9,17,9,1017,1013,0
2015-05-04,22,17,1016.5,100,48,29,15,19,15,1019,1014,0
2015-05-05,22,18,1013.5,100,54,28,16,22,16,1016,1011,44.7
2015-05-06,26,21,1011.5,100,57,31,22,22,19,1014,1009,0
2015-05-07,26,22,1011,93,69,29,22,22,21,1013,1009,0
2015-05-08,25,23,1010.5,94,74,28,21,24,21,1013,1008,5.59
2015-05-09,26,22,1009,100,61,30,21,23,21,1011,1007,0
2015-05-10,27,22,1009,94,57,31,24,23,19,1011,1007,0
2015-05-11,22,20,1015,100,64,25,19,23,17,1020,1010,12.95
2015-05-12,19,19,1019.5,100,87,20,19,20,17,1022,1017,10.92
2015-05-13,19,19,1018.5,100,93,22,17,21,17,1021,1016,42.42
2015-05-14,24,21,1016,100,65,30,19,23,19,1019,1013,1.02
2015-05-15,21,21,1013.5,100,74,24,18,22,18,1016,1011,8.38
2015-05-16,25,21,1010,100,63,31,19,23,18,1012,1008,0
2015-05-17,23,21,1013,100,65,28,18,23,18,1017,1009,58.17
2015-05-18,27,22,1016.5,100,59,31,22,24,22,1019,1014,0.76
2015-05-19,27,23,1014,100,57,31,23,25,21,1017,1011,10.67
2015-05-20,26,22,1013,100,61,31,21,23,22,1015,1011,0
2015-05-21,21,18,1017,100,73,24,17,23,15,1020,1014,0.51
2015-05-22,21,19,1018,100,74,26,17,22,16,1020,1016,0.51
2015-05-23,24,22,1015.5,100,65,30,18,23,18,1019,1012,47.24
2015-05-24,22,19,998.5,100,69,28,17,22,17,1016,981,16
2015-05-25,24,21,1011.5,100,74,29,19,24,10,1016,1007,45.21
2015-05-26,24,21,1014,100,63,31,18,24,18,1016,1012,0
2015-05-27,25,22,1016.5,100,61,31,19,24,18,1019,1014,5.08
2015-05-28,27,23,1014.5,100,59,31,23,25,22,1018,1011,0
2015-05-29,24,19,1013.5,100,50,31,18,23,18,1017,1010,28.45
2015-05-30,26,21,1015.5,100,59,31,20,22,19,1018,1013,2.79
2015-05-31,23,18,1017.5,100,51,29,18,21,17,1020,1015,0
2015-06-01,23,18,1016.5,100,48,31,16,21,16,1018,1015,0
2015-06-02,24,19,1014.5,100,46,31,18,21,18,1017,1012,0
2015-06-03,24,19,1012.5,100,46,32,17,22,17,1015,1010,0
2015-06-04,24,19,1014.5,100,45,32,17,21,17,1016,1013,0
2015-06-05,24,20,1016,100,50,31,17,23,17,1018,1014,0
2015-06-06,26,19,1015,100,44,32,19,22,18,1017,1013,0
2015-06-07,25,19,1014,100,44,32,18,21,18,1016,1012,0
2015-06-08,26,20,1014,100,41,33,18,22,17,1016,1012,0
2015-06-09,27,19,1011.5,100,33,34,20,22,15,1014,1009,0
2015-06-10,27,20,1009.5,100,44,33,20,21,19,1011,1008,0
2015-06-11,27,22,1009,100,49,33,21,23,21,1012,1006,0
2015-06-12,28,22,1009,100,55,34,22,24,21,1011,1007,0.25
2015-06-13,29,23,1010,100,46,34,23,24,20,1012,1008,0
2015-06-14,27,23,1011.5,100,65,31,22,26,21,1013,1010,10.92
2015-06-15,27,23,1012,100,55,32,21,25,21,1014,1010,6.35
2015-06-16,25,23,1011,100,79,27,22,24,22,1014,1008,22.86
2015-06-17,25,23,1010.5,100,70,31,19,24,22,1014,1007,6.6
2015-06-18,27,23,1014,100,59,31,22,24,21,1016,1012,0
2015-06-19,26,23,1016.5,100,70,29,22,25,22,1019,1014,5.33
2015-06-20,26,23,1016,100,70,29,22,25,21,1018,1014,0.25
2015-06-21,26,23,1016.5,100,70,31,22,25,20,1018,1015,4.06
2015-06-22,26,24,1017.5,100,68,31,22,25,22,1019,1016,0
2015-06-23,27,23,1018.5,100,56,33,22,25,22,1021,1016,0.25
2015-06-24,27,23,1019,100,56,33,21,24,22,1021,1017,0
2015-06-25,27,23,1017,100,56,33,20,24,21,1020,1014,0
2015-06-26,28,23,1014.5,100,49,33,23,24,21,1017,1012,0
2015-06-27,28,23,1016,100,63,32,24,24,21,1018,1014,0
2015-06-28,28,23,1016,100,63,32,23,25,22,1018,1014,8.64
2015-06-29,28,23,1014,100,52,33,22,24,21,1016,1012,0
2015-06-30,27,23,1015.5,100,56,33,22,24,22,1018,1013,16
2015-07-01,26,22,1016,100,61,32,19,24,19,1018,1014,0.25
2015-07-02,26,22,1014.5,100,56,32,21,23,21,1016,1013,0
2015-07-03,28,23,1014,100,52,32,23,24,21,1016,1012,0
2015-07-04,28,23,1014,100,56,33,23,24,22,1016,1012,0
2015-07-05,28,23,1015.5,100,56,33,23,24,22,1018,1013,0
2015-07-06,29,23,1015,94,52,33,24,24,21,1018,1012,0
2015-07-07,29,23,1014,94,52,33,25,24,22,1016,1012,0
2015-07-08,28,23,1014.5,94,52,32,24,24,21,1016,1013,0
2015-07-09,27,22,1016,100,44,34,20,24,19,1018,1014,0
2015-07-10,27,21,1017.5,100,39,34,19,24,18,1020,1015,0
2015-07-11,26,21,1019,100,44,34,18,23,19,1021,1017,0
2015-07-12,27,22,1017.5,100,44,34,21,23,20,1020,1015,0
2015-07-13,29,22,1012.5,100,46,35,22,23,21,1015,1010,0
2015-07-14,29,21,1011,100,36,35,23,23,17,1013,1009,0
2015-07-15,28,21,1012,100,41,35,21,23,19,1014,1010,0
2015-07-16,28,22,1013.5,100,44,34,21,23,20,1016,1011,0
2015-07-17,30,23,1013,100,43,36,24,24,20,1016,1010,0
2015-07-18,29,23,1014.5,100,43,36,23,24,21,1016,1013,0
2015-07-19,29,23,1014.5,100,43,36,23,24,21,1017,1012,0
2015-07-20,28,22,1013,100,39,36,20,23,19,1016,1010,0
2015-07-21,28,22,1010.5,100,39,35,22,24,19,1013,1008,0
2015-07-22,30,22,1011.5,100,43,36,24,24,20,1014,1009,0
2015-07-23,30,22,1013.5,100,35,37,23,24,18,1016,1011,0
2015-07-24,30,22,1015,100,40,37,23,24,20,1018,1012,0
2015-07-25,28,22,1013,100,39,36,20,24,19,1016,1010,0
2015-07-26,28,23,1011.5,100,42,36,21,24,20,1014,1009,0
2015-07-27,29,22,1012,100,35,36,23,24,18,1015,1009,0
2015-07-28,30,22,1013,100,35,37,23,24,18,1015,1011,0
2015-07-29,29,22,1015.5,100,33,37,22,24,17,1018,1013,0
2015-07-30,29,19,1015.5,100,29,38,21,22,16,1018,1013,0
2015-07-31,32,21,1013.5,79,37,38,25,22,20,1016,1011,0
2015-08-01,28,17,1013.5,90,27,36,20,20,13,1016,1011,0
2015-08-02,28,17,1011.5,100,24,37,19,20,12,1014,1009,0
2015-08-03,28,18,1010.5,97,30,36,20,22,16,1012,1009,0
2015-08-04,29,21,1012.5,100,36,37,22,24,18,1014,1011,0
2015-08-05,31,22,1012.5,94,31,37,25,24,17,1015,1010,0
2015-08-06,31,22,1012,100,31,38,23,24,17,1015,1009,0
2015-08-07,31,22,1011,94,35,37,23,23,19,1014,1008,0
2015-08-08,31,22,1011.5,100,31,38,23,24,18,1014,1009,0
2015-08-09,31,21,1012.5,100,29,38,23,23,17,1015,1010,0
2015-08-10,31,20,1012,100,24,39,22,24,13,1014,1010,0
2015-08-11,30,18,1014,97,27,39,20,21,16,1016,1012,0
2015-08-12,32,21,1015,87,33,39,23,22,19,1017,1013,0
2015-08-13,32,20,1013.5,87,24,39,24,22,14,1016,1011,0
2015-08-14,31,21,1014,100,33,37,23,24,17,1016,1012,0
2015-08-15,30,20,1013.5,85,31,36,23,23,16,1016,1011,0.51
2015-08-16,29,19,1013,93,30,36,21,22,16,1015,1011,0
2015-08-17,28,21,1012.5,100,41,35,21,24,18,1015,1010,1.52
2015-08-18,30,21,1009,100,35,37,23,24,18,1013,1005,0
2015-08-19,31,23,1008.5,94,40,36,24,24,19,1011,1006,0
2015-08-20,24,22,1013.5,100,74,28,21,24,19,1016,1011,9.91
2015-08-21,27,22,1013.5,100,52,32,21,23,19,1016,1011,4.06
2015-08-22,30,23,1012.5,100,38,36,23,25,19,1015,1010,0
2015-08-23,30,22,1014.5,100,35,37,22,24,19,1017,1012,0
2015-08-24,29,21,1015.5,100,35,37,22,23,17,1018,1013,0
2015-08-25,29,21,1016,100,35,37,22,22,18,1018,1014,0
2015-08-26,28,20,1017.5,100,39,35,21,22,18,1020,1015,0
2015-08-27,28,18,1015.5,100,28,36,19,22,13,1018,1013,0
2015-08-28,27,16,1014,93,26,36,18,18,13,1016,1012,0
2015-08-29,27,18,1015,93,36,34,18,19,16,1017,1013,0
2015-08-30,27,18,1014.5,84,38,33,21,20,17,1016,1013,0
2015-08-31,28,20,1014,97,33,36,19,23,16,1016,1012,2.79
2015-09-01,27,21,1015,100,47,34,21,24,17,1017,1013,0.76
2015-09-02,26,19,1015,100,41,34,18,22,18,1018,1012,0
2015-09-03,27,20,1012,97,44,33,20,22,18,1015,1009,0
2015-09-04,29,22,1012,94,35,36,23,23,18,1014,1010,0
2015-09-05,31,22,1013.5,94,35,37,23,24,19,1016,1011,0
2015-09-06,29,22,1013.5,94,34,37,22,24,17,1016,1011,0
2015-09-07,29,21,1012.5,100,33,37,21,23,17,1015,1010,0
2015-09-08,30,21,1010.5,94,35,36,23,23,17,1014,1007,0
2015-09-09,28,22,1012,100,47,34,23,23,19,1015,1009,1.78
2015-09-10,29,23,1011.5,100,38,36,23,24,19,1014,1009,53.85
2015-09-11,28,23,1012.5,100,50,33,22,25,20,1015,1010,6.6
2015-09-12,25,16,1016,100,24,32,17,22,8,1018,1014,0
2015-09-13,24,11,1016.5,97,23,32,15,15,7,1019,1014,0
2015-09-14,23,13,1016,97,24,32,14,20,9,1018,1014,0
2015-09-15,27,21,1016.5,93,47,33,21,22,19,1019,1014,0
2015-09-16,28,22,1017.5,93,49,34,23,24,21,1020,1015,0.51
2015-09-17,29,21,1014,100,38,34,23,23,17,1017,1011,0
2015-09-18,29,21,1011,100,31,35,22,23,16,1014,1008,0
2015-09-19,27,19,1013,97,30,34,19,23,13,1015,1011,0
2015-09-20,26,17,1014.5,93,30,34,17,21,13,1017,1012,0
2015-09-21,28,17,1014,97,26,34,21,22,12,1016,1012,0
2015-09-22,27,17,1015,87,36,34,18,19,16,1017,1013,0
2015-09-23,26,16,1015,100,28,34,17,21,12,1017,1013,0
2015-09-24,25,15,1015,93,30,33,17,18,12,1017,1013,0
2015-09-25,27,19,1015,100,38,33,19,23,16,1017,1013,29.21
2015-09-26,26,17,1013,100,26,34,18,21,11,1015,1011,0
2015-09-27,26,16,1011,93,28,34,17,19,12,1013,1009,0
2015-09-28,24,17,1009.5,93,42,31,18,19,16,1012,1007,0
2015-09-29,26,18,1011,93,41,34,18,19,17,1013,1009,0
2015-09-30,27,17,1013.5,93,33,34,19,19,14,1015,1012,0
2015-10-01,26,16,1015,93,32,34,18,18,14,1017,1013,0
2015-10-02,22,11,1014,78,25,31,14,14,4,1017,1011,0
2015-10-03,20,8,1011.5,83,23,29,11,11,5,1014,1009,0
2015-10-04,21,9,1014,89,25,30,12,12,7,1016,1012,0
2015-10-05,23,12,1016.5,78,32,29,17,14,9,1019,1014,0
2015-10-06,23,13,1018.5,90,26,31,14,14,9,1021,1016,0
2015-10-07,24,14,1016.5,87,34,33,14,17,12,1019,1014,0
2015-10-08,24,17,1015,93,39,31,17,20,15,1017,1013,0
2015-10-09,25,18,1018,90,43,31,19,19,17,1020,1016,0
2015-10-10,25,16,1019.5,81,36,32,18,17,14,1023,1016,0
2015-10-11,25,16,1013,90,32,35,15,18,14,1017,1009,0
2015-10-12,29,19,1008,93,33,36,21,23,17,1010,1006,0
2015-10-13,23,8,1013.5,85,10,34,13,23,-3,1016,1011,0
2015-10-14,23,6,1017,77,11,35,11,9,1,1019,1015,0
2015-10-15,23,13,1017.5,87,23,34,12,20,8,1020,1015,0
2015-10-16,22,13,1021,93,24,32,11,18,8,1023,1019,0
2015-10-17,22,9,1024,84,25,31,12,13,8,1026,1022,0
2015-10-18,19,3,1025.5,86,13,29,8,8,-3,1028,1023,0
2015-10-19,18,7,1022,89,26,29,7,12,3,1025,1019,0
2015-10-20,20,13,1018,93,35,31,9,20,8,1021,1015,0
2015-10-21,27,20,1017,87,46,31,22,21,18,1020,1014,0
2015-10-22,26,21,1014,100,59,29,21,23,19,1017,1011,1.78
2015-10-23,24,23,1011.5,94,76,27,21,24,21,1014,1009,44.45
2015-10-24,21,19,1012,100,88,25,16,23,17,1015,1009,131.06
2015-10-25,17,14,1015.5,100,73,18,14,16,13,1017,1014,14.48
2015-10-26,21,12,1014,93,45,26,14,14,10,1017,1011,0
2015-10-27,21,12,1010,93,26,29,12,13,7,1013,1007,0
2015-10-28,19,10,1010.5,89,28,27,11,12,7,1013,1008,0
2015-10-29,18,12,1011.5,93,36,28,8,18,8,1014,1009,0
2015-10-30,22,21,1007,100,84,24,19,25,18,1011,1003,380.75
2015-10-31,20,19,1008.5,100,73,23,17,24,16,1013,1004,32.51
2015-11-01,19,15,1014,100,54,24,15,16,12,1016,1012,6.35
2015-11-02,21,15,1015,100,54,27,14,18,13,1017,1013,0
2015-11-03,21,15,1016.5,100,42,28,14,17,13,1019,1014,0
2015-11-04,20,17,1016,100,58,27,13,20,12,1018,1014,0
2015-11-05,27,22,1014,94,61,31,23,23,20,1016,1012,0
2015-11-06,20,12,1017.5,93,41,24,16,22,8,1020,1015,0
2015-11-07,16,13,1020.5,100,67,17,14,15,6,1024,1017,9.91
2015-11-08,16,7,1022.5,77,42,21,12,8,5,1025,1020,0
2015-11-09,17,10,1019.5,96,41,24,10,13,8,1022,1017,0
2015-11-10,18,17,1016,93,69,24,12,19,12,1019,1013,0
2015-11-11,24,18,1012,93,29,31,18,22,-3,1016,1008,0
2015-11-12,18,3,1020,62,28,22,13,7,-1,1024,1016,0
2015-11-13,16,4,1025.5,62,37,18,14,7,3,1027,1024,0
2015-11-14,16,8,1026,86,45,19,13,12,5,1028,1024,0.51
2015-11-15,17,12,1021,96,57,23,11,17,9,1025,1017,0
2015-11-16,22,20,1009.5,93,79,24,19,22,17,1017,1002,0.51
2015-11-17,15,12,1004.5,93,40,24,6,22,4,1009,1000,8.38
2015-11-18,13,5,1011,96,31,22,3,7,3,1014,1008,0
2015-11-19,15,9,1017.5,96,38,25,5,12,4,1021,1014,0
2015-11-20,16,12,1016.5,100,46,25,6,16,6,1020,1013,0
2015-11-21,11,7,1020.5,100,30,18,3,17,-4,1028,1013,0
2015-11-22,7,-2,1026.5,85,30,13,-1,1,-4,1029,1024,0
2015-11-23,8,0,1025.5,92,25,18,-3,5,-3,1028,1023,0
2015-11-24,13,10,1021,92,63,19,7,14,5,1024,1018,0
2015-11-25,20,16,1017.5,93,53,25,15,18,13,1019,1016,0.25
2015-11-26,22,21,1018.5,100,78,24,21,22,18,1021,1016,10.41
2015-11-27,16,15,1020.5,96,82,25,6,21,4,1023,1018,3.56
2015-11-28,6,4,1023.5,96,83,7,4,6,3,1025,1022,2.79
2015-11-29,7,6,1021.5,100,86,8,6,7,4,1024,1019,0.51
2015-11-30,10,7,1017.5,93,71,13,7,8,6,1019,1016,0
2015-12-01,11,6,1017.5,86,57,14,8,8,5,1020,1015,0
2015-12-02,12,4,1022,100,28,20,4,7,-1,1026,1018,0
2015-12-03,9,2,1028,92,34,17,1,4,1,1030,1026,0
2015-12-04,9,2,1031,96,39,17,0,5,0,1033,1029,0
2015-12-05,9,3,1030.5,100,37,19,-1,6,-1,1033,1028,0
2015-12-06,12,7,1029,100,51,21,3,10,3,1031,1027,0
2015-12-07,11,5,1024.5,100,35,21,2,8,2,1028,1021,0
2015-12-08,12,8,1017,100,41,24,1,12,1,1021,1013,0
2015-12-09,15,8,1015.5,100,29,24,6,10,4,1018,1013,0
2015-12-10,17,14,1010,100,48,26,7,17,7,1013,1007,0
2015-12-11,18,16,1009.5,100,54,27,8,19,8,1011,1008,0
2015-12-12,23,20,1006.5,87,82,24,22,21,19,1010,1003,0.76
2015-12-13,17,11,1005.5,100,67,25,9,21,6,1009,1002,29.97
2015-12-14,14,5,1008.5,89,29,23,4,8,2,1010,1007,0
2015-12-15,16,15,1006.5,100,69,24,8,18,7,1009,1004,0
2015-12-16,11,-1,1013,70,25,18,3,5,-4,1017,1009,0
2015-12-17,10,-1,1020,89,27,19,1,3,-4,1025,1015,0
2015-12-18,7,-1,1028,89,35,14,-1,1,-3,1031,1025,0
2015-12-19,9,4,1030,92,42,19,-2,9,-3,1033,1027,0
2015-12-20,14,13,1021,100,76,20,8,17,7,1027,1015,0
2015-12-21,17,16,1013.5,100,64,23,10,18,10,1016,1011,0
2015-12-22,15,13,1006.5,100,50,26,4,19,4,1013,1000,0
2015-12-23,18,12,1002,100,20,28,8,19,3,1006,998,0
2015-12-24,15,13,1010,93,68,23,7,17,7,1014,1006,0
2015-12-25,17,12,1013.5,93,57,23,11,21,6,1017,1010,0
2015-12-26,24,21,1006.5,93,74,26,23,22,20,1010,1003,0.76
2015-12-27,14,8,1005.5,100,79,24,3,21,0,1011,1000,24.89
2015-12-28,6,-1,1013.5,89,53,9,2,1,-2,1018,1009,0
2015-12-29,6,3,1019,92,56,10,2,7,0,1022,1016,0.51
2015-12-30,8,6,1023.5,100,66,13,3,7,2,1026,1021,1.27
2015-12-31,8,4,1026.5,92,63,13,2,5,2,1029,1024,0
2016-01-01,8,1,1030.5,66,49,10,7,3,-2,1033,1028,0
2016-01-02,8,1,1030,96,46,9,6,6,-2,1032,1028,5.59
2016-01-03,8,4,1025.5,96,49,16,1,6,1,1028,1023,0
2016-01-04,7,-1,1027,92,36,14,0,1,-2,1029,1025,0
2016-01-05,6,3,1025,100,54,14,-2,6,-2,1028,1022,0
2016-01-06,10,9,1018,93,80,12,8,11,5,1023,1013,16.26
2016-01-07,16,11,1011.5,100,38,22,9,12,7,1014,1009,0
2016-01-08,11,9,1008,100,73,19,3,14,3,1011,1005,0
2016-01-09,10,1,1017,71,46,16,4,5,-2,1024,1010,0
2016-01-10,5,-3,1026.5,82,42,10,-1,-2,-4,1029,1024,0
2016-01-11,7,-2,1024,96,35,14,-1,1,-3,1026,1022,0
2016-01-12,9,1,1025.5,92,30,18,-1,4,-1,1028,1023,0
2016-01-13,9,3,1021.5,100,37,19,-2,6,-1,1025,1018,0
2016-01-14,13,10,1012,93,57,22,5,14,6,1017,1007,0
2016-01-15,12,3,1008.5,93,23,21,3,12,-1,1011,1006,0
2016-01-16,10,3,1015,92,31,18,2,7,0,1022,1008,0.25
2016-01-17,6,-1,1021.5,92,41,14,-3,2,-3,1024,1019,0
2016-01-18,7,2,1027,92,47,14,-2,4,-2,1030,1024,0
2016-01-19,11,7,1021.5,100,51,21,1,11,1,1025,1018,0
2016-01-20,10,4,1019.5,93,50,13,7,11,-1,1023,1016,0
2016-01-21,12,7,1017.5,100,33,19,5,13,-3,1024,1011,0.25
2016-01-22,6,-2,1025.5,85,38,13,-2,-1,-4,1028,1023,0
2016-01-23,6,-1,1025,92,35,14,-4,1,-4,1028,1022,0
2016-01-24,9,5,1016.5,92,40,21,-3,12,-3,1021,1012,0
2016-01-25,16,11,1014,96,53,23,9,13,3,1017,1011,0
2016-01-26,10,1,1022.5,76,46,14,6,4,-2,1027,1018,4.06
2016-01-27,7,-3,1026.5,75,24,14,0,-1,-6,1029,1024,0
2016-01-28,10,-1,1021.5,85,19,22,-3,3,-4,1025,1018,0
2016-01-29,12,1,1016.5,96,22,24,-1,3,-1,1020,1013,0
2016-01-30,14,8,1011.5,90,33,25,3,14,3,1014,1009,0
2016-01-31,18,13,1009,100,39,27,10,16,5,1011,1007,0
2016-02-01,16,12,1005.5,100,45,26,7,17,4,1011,1000,0
2016-02-02,14,-3,1009.5,65,17,22,6,2,-5,1014,1005,0
2016-02-03,7,-3,1021.5,70,28,15,-1,-2,-5,1029,1014,0
2016-02-04,6,-5,1031.5,72,23,14,-2,-3,-7,1034,1029,0
2016-02-05,6,-2,1029,96,23,16,-5,4,-6,1032,1026,0
2016-02-06,9,-1,1027.5,89,18,16,1,4,-4,1029,1026,0
2016-02-07,8,-1,1024.5,92,26,19,-3,3,-3,1029,1020,0
2016-02-08,11,-7,1027,76,13,18,2,2,-11,1031,1023,0
2016-02-09,12,-3,1026,65,20,23,1,1,-7,1029,1023,0
2016-02-10,11,0,1026,89,23,23,-1,2,-2,1030,1022,0
2016-02-11,14,3,1019.5,72,19,27,1,8,-1,1022,1017,0
2016-02-12,14,6,1023,100,25,26,2,10,2,1025,1021,0
2016-02-13,15,9,1024,86,49,23,7,13,3,1028,1020,0
2016-02-14,18,13,1015,100,46,24,11,14,11,1020,1010,0
2016-02-15,16,9,1011.5,100,28,24,7,15,2,1014,1009,0
2016-02-16,16,4,1016,92,25,28,3,7,0,1019,1013,0
2016-02-17,13,1,1022.5,70,23,24,3,6,-3,1026,1019,0
2016-02-18,18,12,1020.5,93,39,27,8,15,5,1024,1017,0
2016-02-19,23,14,1019,84,45,27,18,17,13,1022,1016,0
2016-02-20,22,17,1017,93,64,25,19,18,16,1020,1014,0
2016-02-21,20,17,1015.5,93,73,22,18,18,16,1018,1013,0
2016-02-22,18,14,1009.5,93,61,21,14,17,11,1015,1004,0
2016-02-23,13,9,1009.5,93,54,17,9,15,2,1018,1001,28.96
2016-02-24,12,-1,1021,76,19,18,5,3,-6,1025,1017,0
2016-02-25,9,-1,1027,92,23,21,-2,1,-2,1031,1023,0
2016-02-26,9,-1,1029.5,85,27,18,1,2,-3,1033,1026,0
2016-02-27,12,7,1023.5,92,44,22,2,11,1,1027,1020,0
2016-02-28,18,13,1017.5,96,50,25,10,15,9,1021,1014,0
2016-02-29,21,16,1016.5,97,48,26,16,17,14,1020,1013,0
2016-03-01,19,13,1017.5,87,41,28,11,17,2,1022,1013,0
2016-03-02,14,9,1017.5,92,39,25,3,17,1,1023,1012,0
2016-03-03,19,11,1015,93,20,28,9,18,1,1020,1010,0
2016-03-04,14,3,1020,79,23,24,3,8,1,1023,1017,0
2016-03-05,17,13,1020.5,100,43,25,9,14,10,1023,1018,0
2016-03-06,19,14,1017,100,54,26,12,16,11,1021,1013,0
2016-03-07,22,17,1009.5,93,60,26,18,18,16,1013,1006,0
2016-03-08,24,19,1004.5,97,58,28,20,21,18,1007,1002,3.05
2016-03-09,18,15,1007,100,93,21,16,21,7,1010,1004,65.02
2016-03-10,17,16,1010,100,87,18,15,17,14,1013,1007,9.4
2016-03-11,20,16,1012.5,100,53,24,16,17,12,1014,1011,3.3
2016-03-12,18,13,1011.5,93,53,23,13,14,12,1014,1009,0
2016-03-13,21,11,1008,100,18,29,13,18,2,1010,1006,0
2016-03-14,19,11,1008.5,93,33,31,7,19,6,1011,1006,0
2016-03-15,24,18,1010,100,38,30,17,20,7,1013,1007,0
2016-03-16,19,14,1014,93,49,26,11,19,6,1016,1012,0
2016-03-17,22,19,1010.5,97,67,27,17,20,18,1013,1008,0.25
2016-03-18,19,19,1011,100,71,26,13,21,12,1015,1007,1.52
2016-03-19,12,3,1020.5,72,31,17,6,9,-2,1025,1016,0
2016-03-20,10,-1,1028.5,79,27,17,2,1,-4,1031,1026,0
2016-03-21,9,1,1028,96,29,19,0,4,-1,1032,1024,0
2016-03-22,14,9,1018,100,43,26,2,15,3,1023,1013,0
2016-03-23,23,17,1009,90,58,27,18,19,15,1013,1005,0.25
2016-03-24,14,8,1012.5,86,32,21,7,19,0,1018,1007,12.7
2016-03-25,13,5,1013,100,31,23,3,9,3,1017,1009,0
2016-03-26,14,10,1012.5,100,53,23,4,14,4,1014,1011,0
2016-03-27,17,13,1016.5,100,41,23,10,18,7,1021,1012,0.25
2016-03-28,14,6,1018.5,86,33,23,6,12,4,1022,1015,0
2016-03-29,17,17,1013,100,72,22,12,20,8,1016,1010,0.25
2016-03-30,23,21,1006,100,82,25,21,22,20,1010,1002,0.76
2016-03-31,22,14,1005,100,20,29,13,21,3,1008,1002,0
2016-04-01,13,8,1014,93,48,18,8,11,4,1021,1007,4.06
2016-04-02,14,3,1023.5,89,22,23,4,7,-1,1026,1021,0
2016-04-03,14,4,1021.5,93,23,25,2,8,2,1025,1018,0
2016-04-04,18,8,1021,93,28,27,8,12,4,1023,1019,0
2016-04-05,16,9,1020,100,34,27,5,12,5,1023,1017,0
2016-04-06,18,11,1016.5,93,21,27,8,15,2,1020,1013,0
2016-04-07,17,7,1016,100,22,29,5,12,4,1019,1013,0
2016-04-08,18,7,1019,89,23,27,10,10,3,1022,1016,0
2016-04-09,19,12,1018,83,41,26,12,15,7,1021,1015,0
2016-04-10,23,17,1013,93,58,27,18,19,15,1016,1010,0
2016-04-11,24,20,1012,100,48,30,17,22,18,1014,1010,0
2016-04-12,19,17,1016.5,100,78,21,17,21,15,1020,1013,42.67
2016-04-13,18,16,1016.5,100,68,22,14,17,15,1019,1014,10.16
2016-04-14,18,13,1015,100,57,24,11,14,11,1017,1013,0
2016-04-15,18,14,1010.5,100,56,26,10,17,10,1013,1008,0
2016-04-16,21,19,1010,93,84,24,18,22,16,1012,1008,5.08
2016-04-17,22,21,1012.5,100,82,26,19,23,18,1015,1010,6.86
2016-04-18,20,19,1017,100,73,23,17,20,16,1020,1014,32.77
2016-04-19,22,18,1016,100,67,27,17,21,17,1019,1013,0
2016-04-20,22,17,1014.5,100,54,27,16,19,15,1017,1012,10.41
2016-04-21,22,17,1014.5,100,54,28,15,19,15,1017,1012,12.95
2016-04-22,21,13,1018,100,35,28,13,16,9,1020,1016,0
2016-04-23,19,12,1016,93,36,28,11,15,10,1019,1013,0
2016-04-24,21,17,1011.5,97,64,26,16,19,14,1015,1008,0
2016-04-25,26,21,1007,97,59,31,21,23,19,1010,1004,0
2016-04-26,26,21,1004,84,61,30,22,22,19,1007,1001,0
2016-04-27,24,14,1003.5,93,18,32,16,22,4,1007,1000,11.18
2016-04-28,23,19,1008.5,100,48,31,15,23,13,1011,1006,0
2016-04-29,27,23,1003.5,94,70,29,24,24,22,1007,1000,0.51
2016-04-30,23,19,1005,100,58,29,17,23,17,1009,1001,27.94
2016-05-01,22,16,1012,93,54,26,18,19,13,1015,1009,2.29
2016-05-02,17,12,1017,80,58,19,14,14,10,1020,1014,1.27
2016-05-03,18,10,1017.5,93,38,24,12,11,8,1020,1015,0
2016-05-04,20,11,1017,100,28,29,11,14,8,1020,1014,0
2016-05-05,21,12,1016,93,32,30,11,16,10,1018,1014,0
2016-05-06,21,12,1016.5,100,32,29,11,15,9,1019,1014,0
2016-05-07,21,14,1014,100,37,29,11,17,11,1016,1012,0
2016-05-08,21,18,1010,93,73,23,18,20,17,1014,1006,1.27
2016-05-09,24,19,1007.5,93,48,31,18,21,17,1010,1005,0
2016-05-10,26,22,1012,93,56,33,19,23,18,1016,1008,9.4
2016-05-11,24,19,1015,93,61,30,18,22,17,1019,1011,6.6
2016-05-12,26,21,1018.5,93,58,29,21,22,17,1022,1015,0
2016-05-13,26,20,1018.5,90,55,31,21,22,18,1022,1015,0
2016-05-14,23,20,1017.5,100,69,27,18,22,18,1019,1016,18.8
2016-05-15,20,17,1017,93,73,23,17,19,13,1020,1014,5.08
2016-05-16,23,19,1012.5,93,62,27,19,20,18,1016,1009,18.29
2016-05-17,23,19,1012.5,100,67,28,18,21,17,1016,1009,6.35
2016-05-18,22,16,1015,100,58,26,17,18,15,1019,1011,3.56
2016-05-19,20,17,1013.5,100,73,24,16,19,15,1017,1010,69.85
2016-05-20,22,17,1015,100,58,28,16,19,16,1017,1013,0
2016-05-21,25,21,1015.5,100,69,29,21,23,18,1018,1013,0
2016-05-22,27,22,1012,93,63,31,22,24,21,1015,1009,0
2016-05-23,26,22,1011,93,70,29,22,24,21,1014,1008,0.25
2016-05-24,27,23,1012.5,94,63,31,23,23,21,1014,1011,0
2016-05-25,27,24,1014,94,74,30,24,25,23,1016,1012,0
2016-05-26,26,23,1010,100,65,31,19,26,19,1014,1006,223.27
2016-05-27,21,20,1008.5,100,79,25,17,22,18,1012,1005,7.11
2016-05-28,26,21,1013,100,56,33,18,24,18,1017,1009,1.02
2016-05-29,27,21,1016.5,94,52,32,22,23,17,1019,1014,3.81
2016-05-30,26,19,1015,100,40,31,19,23,15,1019,1011,6.6
2016-05-31,24,22,1010,100,74,28,19,23,19,1013,1007,17.02
,,,,,,,,,,,,
,,,,,,,,,,,,
,,,,,,,,,,,,
,,,,,,,,,,,,
,,,,,,,,,,,,
,,,,,,,,,,,,
,,,,,,,,,,,,
,,,,,,,,,,,,
,,,,,,,,,,,,
,,,,,,,,,,,,
,,,,,,,,,,,,
,,,,,,,,,,,,
,,,,,,,,,,,,
,,,,,,,,,,,,
,,,,,,,,,,,,
,,,,,,,,,,,,
,,,,,,,,,,,,
,,,,,,,,,,,,
,,,,,,,,,,,,
,,,,,,,,,,,,
,,,,,,,,,,,,
,,,,,,,,,,,,
,,,,,,,,,,,,
,,,,,,,,,,,,
,,,,,,,,,,,,
,,,,,,,,,,,,
,,,,,,,,,,,,
,,,,,,,,,,,,
,,,,,,,,,,,,
,,,,,,,,,,,,
,,,,,,,,,,,,
,,,,,,,,,,,,
,,,,,,,,,,,,
,,,,,,,,,,,,
,,,,,,,,,,,,
,,,,,,,,,,,,
,,,,,,,,,,,,
,,,,,,,,,,,,
,,,,,,,,,,,,
,,,,,,,,,,,,
,,,,,,,,,,,,
,,,,,,,,,,,,
,,,,,,,,,,,,
,,,,,,,,,,,,
,,,,,,,,,,,,
,,,,,,,,,,,,
,,,,,,,,,,,,
,,,,,,,,,,,,
,,,,,,,,,,,,
,,,,,,,,,,,,
,,,,,,,,,,,,
,,,,,,,,,,,,
,,,,,,,,,,,,
,,,,,,,,,,,,
,,,,,,,,,,,,
,,,,,,,,,,,,
,,,,,,,,,,,,
,,,,,,,,,,,,
,,,,,,,,,,,,
,,,,,,,,,,,,
,,,,,,,,,,,,
,,,,,,,,,,,,
,,,,,,,,,,,,
,,,,,,,,,,,,
,,,,,,,,,,,,
,,,,,,,,,,,,
,,,,,,,,,,,,
,,,,,,,,,,,,
,,,,,,,,,,,,
,,,,,,,,,,,,
,,,,,,,,,,,,
,,,,,,,,,,,,
,,,,,,,,,,,,
,,,,,,,,,,,,
,,,,,,,,,,,,
,,,,,,,,,,,,
,,,,,,,,,,,,
,,,,,,,,,,,,
,,,,,,,,,,,,
,,,,,,,,,,,,
,,,,,,,,,,,,
,,,,,,,,,,,,
,,,,,,,,,,,,
,,,,,,,,,,,,
,,,,,,,,,,,,
,,,,,,,,,,,,
,,,,,,,,,,,,
,,,,,,,,,,,,
,,,,,,,,,,,,
,,,,,,,,,,,,
,,,,,,,,,,,,
,,,,,,,,,,,,
,,,,,,,,,,,,
,,,,,,,,,,,,
,,,,,,,,,,,,
,,,,,,,,,,,,
,,,,,,,,,,,,
,,,,,,,,,,,,
,,,,,,,,,,,,
,,,,,,,,,,,,
,,,,,,,,,,,,
,,,,,,,,,,,,
,,,,,,,,,,,,
,,,,,,,,,,,,
,,,,,,,,,,,,
,,,,,,,,,,,,
,,,,,,,,,,,,
,,,,,,,,,,,,
,,,,,,,,,,,,
,,,,,,,,,,,,
,,,,,,,,,,,,
,,,,,,,,,,,,
,,,,,,,,,,,,
,,,,,,,,,,,,
,,,,,,,,,,,,
,,,,,,,,,,,,
,,,,,,,,,,,,
,,,,,,,,,,,,
,,,,,,,,,,,,
,,,,,,,,,,,,
,,,,,,,,,,,,
,,,,,,,,,,,,
,,,,,,,,,,,,
,,,,,,,,,,,,
,,,,,,,,,,,,
,,,,,,,,,,,,
,,,,,,,,,,,,
,,,,,,,,,,,,
,,,,,,,,,,,,
,,,,,,,,,,,,
,,,,,,,,,,,,
,,,,,,,,,,,,
,,,,,,,,,,,,
,,,,,,,,,,,,
,,,,,,,,,,,,
,,,,,,,,,,,,
,,,,,,,,,,,,
,,,,,,,,,,,,
,,,,,,,,,,,,
,,,,,,,,,,,,
,,,,,,,,,,,,
,,,,,,,,,,,,
,,,,,,,,,,,,
,,,,,,,,,,,,
,,,,,,,,,,,,
,,,,,,,,,,,,
,,,,,,,,,,,,
,,,,,,,,,,,,
,,,,,,,,,,,,
,,,,,,,,,,,,
,,,,,,,,,,,,
,,,,,,,,,,,,
,,,,,,,,,,,,
,,,,,,,,,,,,
,,,,,,,,,,,,
,,,,,,,,,,,,
,,,,,,,,,,,,
,,,,,,,,,,,,
,,,,,,,,,,,,
,,,,,,,,,,,,
,,,,,,,,,,,,
,,,,,,,,,,,,
,,,,,,,,,,,,
,,,,,,,,,,,,
,,,,,,,,,,,,
,,,,,,,,,,,,
,,,,,,,,,,,,
,,,,,,,,,,,,
,,,,,,,,,,,,
,,,,,,,,,,,,
,,,,,,,,,,,,
,,,,,,,,,,,,
,,,,,,,,,,,,
,,,,,,,,,,,,
,,,,,,,,,,,,
,,,,,,,,,,,,
,,,,,,,,,,,,
,,,,,,,,,,,,
,,,,,,,,,,,,
,,,,,,,,,,,,
,,,,,,,,,,,,
,,,,,,,,,,,,
,,,,,,,,,,,,
,,,,,,,,,,,,
,,,,,,,,,,,,
,,,,,,,,,,,,
,,,,,,,,,,,,
,,,,,,,,,,,,
,,,,,,,,,,,,
,,,,,,,,,,,,
,,,,,,,,,,,,
,,,,,,,,,,,,
,,,,,,,,,,,,
,,,,,,,,,,,,
,,,,,,,,,,,,
,,,,,,,,,,,,
,,,,,,,,,,,,
,,,,,,,,,,,,
,,,,,,,,,,,,
,,,,,,,,,,,,
,,,,,,,,,,,,
,,,,,,,,,,,,
,,,,,,,,,,,,
,,,,,,,,,,,,
,,,,,,,,,,,,
,,,,,,,,,,,,
,,,,,,,,,,,,
,,,,,,,,,,,,
,,,,,,,,,,,,
,,,,,,,,,,,,
,,,,,,,,,,,,
,,,,,,,,,,,,
,,,,,,,,,,,,
,,,,,,,,,,,,
,,,,,,,,,,,,
,,,,,,,,,,,,
,,,,,,,,,,,,
,,,,,,,,,,,,
,,,,,,,,,,,,
,,,,,,,,,,,,
,,,,,,,,,,,,
,,,,,,,,,,,,
,,,,,,,,,,,,
,,,,,,,,,,,,
,,,,,,,,,,,,
,,,,,,,,,,,,
,,,,,,,,,,,,
,,,,,,,,,,,,
,,,,,,,,,,,,
,,,,,,,,,,,,
,,,,,,,,,,,,
,,,,,,,,,,,,
,,,,,,,,,,,,
,,,,,,,,,,,,
,,,,,,,,,,,,
,,,,,,,,,,,,
,,,,,,,,,,,,
,,,,,,,,,,,,
,,,,,,,,,,,,
,,,,,,,,,,,,
,,,,,,,,,,,,
,,,,,,,,,,,,
,,,,,,,,,,,,
,,,,,,,,,,,,
,,,,,,,,,,,,
,,,,,,,,,,,,
,,,,,,,,,,,,
,,,,,,,,,,,,
,,,,,,,,,,,,
,,,,,,,,,,,,
,,,,,,,,,,,,
,,,,,,,,,,,,
